{
  "0_started": {
    "heading": "New PubSweet app"
  },
  "1_first": {
    "heading": "First component"
  },
  "2_route": {
    "heading": "Add a route"
  },
  "3_package": {
    "heading": "Package the component"
  },
  "4_redux_actions": {
    "heading": "Create an action"
  },
  "5_connect": {
    "heading": "Dispatch the action"
  },
  "6_reducer": {
    "heading": "Create a reducer"
  },
  "7_add": {
    "heading": "Load the component"
  }
}
